{
  "type": "service_account",
  "project_id": "saif46d",
  "private_key_id": "280b7d0652f2f06a84a5cd1c09271b55bbcfa872",
  "private_key": "-----BEGIN PRIVATE KEY-----\nMIIEvAIBADANBgkqhkiG9w0BAQEFAASCBKYwggSiAgEAAoIBAQCs6VVmLK83s1al\n0Q3KQV8d1F6wcjaIFL1HjWJckotTLymVnsozIOc49F4nJ9y5gHAD0bgs6HYYrede\ncsyCuArSpWL0SIybVTLR0yinkqwznNUFaltgGvGqYQaLNv4RzZC0ZT9y27mQM+2P\nbFtrL9ASRxxJAH/k50+3dcJdhc03DBun+A94O5mS3MgDHUvgrnDWuIMccNMyX3ea\n6TKVO+ShPFb5PRQRu/WtcE3sBuSP+x0PKdAaLrcHD/AnAJmy3kgoRAYtVr3dsGZ8\nkRJlH7SU4lZOuYviBVJpoFtkahovnTvjN1seynNlMakfvl2/ZeEy9IrWLGmfPGOi\n7Fmn+BL1AgMBAAECggEAGZj5YYTf85kDDM0kA3sl/55+3hQqan7Xfo45r4aqRYhH\n2bSGLoeCc3YJsjY+gN+4tXgIke1f/ktQYzUPfZKNV53QRmWvGxfDzDg8XoJiJ8nh\n50lVeabDe/udImLjvfL2px4OBIzuraBiXMcnyXhsjygj0dLXHCX6MSinu3yhYrKT\nxcaHhzrKl/r1JO+VoRn8Aam9hiLLh+w66k+5QSzc33ID75I68Ps/TfqVpXZuCeLu\nh7FUSgt5gnVt3WPBSDxuqd4CjHa9tivLg+mO7XnAhFUgooBFYeQ+b/Kp/rR6mDt+\ncQG3TmJEh+7Tb+dAFvyBS/lLXkaAw34Vbub4BmDiAQKBgQDfYYbz2BXvi9jYe5Ug\nWa5kOWaQn0VHdTLLfbRUJ5sXbCvACHzNyXHG8vZ6VS8zxDBiCpNk6VtsFJ/gQpIs\nWbgA09H+dFhyfWYXti/Je1lHt0UDKPVNKGXE6hYxpMqmYzuSUM3waE6V/U3fH1fd\nzQf0hhCfleZwj24iL//ixcedwQKBgQDGKSUiOn+lanNqH39ymA5SSKBxCnydB4mV\nMkx4PJlpgvyNZkV1iODkwvmm1jhvnRACj6WrpIJZ76s2LwJUwaWYYXZmOdR+b5t6\n9A2DMxxx4HlBbPxYa8siXV3ja1UdO4SvhaL7yDoIhAjaIXh+1Q/4zOhehJCDYQAZ\n8vCA3/LqNQKBgFJKbFvCO/p+S0kc5cgAIbV8S+N1OSFk9Gxwh5EE8iaDy+43cjqh\nPk/rS4+vd+8bFDPZ74iaSvqa8na8L3s1Jgrv/Yk+tSKgPY74p8wSq8Y2pq7OVOey\nvSL4lWp+acU4A0cYi3VIB8NLiHds5YKpOIgFJ3SS1UycGhdwFVUmRS5BAoGADUVS\nJFGwnL5dTl0fpugCBYaxoABoygdoMmK09lRwnb1U9o9D1ZQ+I3PfTkoIa4kkOleu\na6lPxYAkgjNxv4VcdrEIQd5bmcAVtI1FnmS84e97j2MiHzXQ29NO510XzSZgQ3T6\nrkwBfvKAuUMGk8/nCu2GHlZYa0QCwrofWzIkTYUCgYBhx8h0R4EV9+f2IPIQP2ys\nWvuuryfwcSNFPt7cmJTFEvAD3wpwIWgRmrpISVydHOo4NpMMAvOhMWUn98brzQ3c\n2O1TR0CxebNINcP1h8YibZOYeiiI5mVpTCN0JDnOoKNpyZO3FYC5irY+OeUFOWzO\nQyFb4iqcZBcyC1I3FI8cOA==\n-----END PRIVATE KEY-----\n",
  "client_email": "mfc-gxhqd2fp8aykmmqop6lsm2m2we@saif46d.iam.gserviceaccount.com",
  "client_id": "114279727496068604893",
  "auth_uri": "https://accounts.google.com/o/oauth2/auth",
  "token_uri": "https://oauth2.googleapis.com/token",
  "auth_provider_x509_cert_url": "https://www.googleapis.com/oauth2/v1/certs",
  "client_x509_cert_url": "https://www.googleapis.com/robot/v1/metadata/x509/mfc-gxhqd2fp8aykmmqop6lsm2m2we%40saif46d.iam.gserviceaccount.com"
}
