{
  "type": "service_account",
  "project_id": "saif46d",
  "private_key_id": "21a505990a8c6d485fa54f1fb59affd3f0a8673f",
  "private_key": "-----BEGIN PRIVATE KEY-----\nMIIEvQIBADANBgkqhkiG9w0BAQEFAASCBKcwggSjAgEAAoIBAQDRVXt6fva+q89+\nvSm+EhJ2fZ42BUWnYFG+/B59A0YXhs8II0OVm3ywpHcx8rwMIYkwUZ2c03jB55lv\nh6mK2sY7NnmS2ej+QaQ0mzakwq4EsYPnqKv3yadW+TqSii5B/lbeGK2cnaYE9hz8\nOf6E0gSjreIn60QvCmGonS0XPtDn9re9I0pCE3XXogdPsbUPWE88ad8mOHcEcgQ7\nBgTqMzRpfVGqk/LbCulOTjaq2eTNSN5BR0pug5Wt3Nd08gkK+5CpKfll6preSkZ8\neehCVQDUeWnUaubseIqN14diFg2GXpzNg1RJoOTJza/Fv8t2BLkggDCSQkm1g8JW\n6lJxAUkdAgMBAAECggEAClliAN21vrPGG7nn59r2X5yY9z3XyMbaoikBeKsL0QSl\nh/CdLVB4cwMEI17HPIh/tkXh5C7Rsn2llXQJ5h2OfXJu9igaT5zfEwlVnTWRWC+O\nufCZ/rN3d7WoioKhqocTwQ6yYWlE28vVuOpefC8/ssTmIHs0tE7conMRpEU2TrI9\nTejaY/wG7x4sbMQW1BNm/G/PfBDTr03UPN4FwPn38CqCnyQY2zS+DeyMuN8ghcD4\nsvTm9iSB832Q9sKRsSZ5ccvK3VjKAIoEIFw/OhV/uGlwvthyL8osHikOQtRCDoXN\n3zdXTPM0zREPERbQXzFDec80Tm8YKj9PrMJhWosxkQKBgQDzdshgO27nxE4o/1HZ\nFMEgRXausME3L3MQxDOyehXG9Yg8xC4kZhZr0oD3eFd9Qy47yS40b0snEvGl/lXJ\neK1fIGK/3zlZi3gs1T0MbNvSn9wQW9ooVOpi8bTcmc0x1OfM9NJZ3Vr2HjudflWL\noNfubnva4P0ol0xPDyxpOLS6cQKBgQDcHNB/nmLfHx6ScL6D20ivWccAKUZEL+Gd\nZs0fFbJh0uCjc6b8poTRqCR4tDC/NjPd2wohsuv9QYUsd73V9rUhLWgmV9Si7XzM\nbwDwDOXK9HDiqb0YSFmRenBzrmMfYjIBZ5Hv925Uot3iRqJkzzX1puPI7Fe3gSf9\ncwcWDYnXbQKBgAx4kCkFwleS4aIN+gZRntblV//4w9zszEsWkcNZp5Xqa9EZB3gL\n1qgtPzft7SVYdJzRYFGFRec5fDFRhtlsGg1eXlCPwaNJlp1NSvRA+z2dvKsF2XXp\na5wn32jRZAZiboE8JS4/PXKP9+PIXd9qHMV02VlL3wvePCVslIzLP86xAoGAUQQi\nEfcAOVPA8vGgjfPWawRGZN7MSCi/iCngcgKQZ8UwfbkBy5iW5nxXAD6Cer6+lHgc\n4I50ogDNvbJNI0XtIUsPPJ2zXEzBVJW+6Jw2sF8MdcE4IonuvcctQMb9IP4Jnc67\nPnH6IBjaRoDtIOHL4KEO0lN7bcWSLI18HDfbdnkCgYEA3/0H7zWZAI1OUrJ1n1Y/\nO7PD38KpFbkmw4K/jqFG85tyY5mu7uMYSyVtylo6KdCbxW13z3z+2v2sJQcvngsz\nBm0ILDdfiHphx5448VY3WC+uEKHev7vxJZFQRzpZuHj4u0TlVvCiOlBpeBw5S+N/\n6NJA2cz+wi3QWVtBXhuGotE=\n-----END PRIVATE KEY-----\n",
  "client_email": "mfc-qseh4c04tvupog3nmbcble30b0@saif46d.iam.gserviceaccount.com",
  "client_id": "116292284990246385650",
  "auth_uri": "https://accounts.google.com/o/oauth2/auth",
  "token_uri": "https://oauth2.googleapis.com/token",
  "auth_provider_x509_cert_url": "https://www.googleapis.com/oauth2/v1/certs",
  "client_x509_cert_url": "https://www.googleapis.com/robot/v1/metadata/x509/mfc-qseh4c04tvupog3nmbcble30b0%40saif46d.iam.gserviceaccount.com"
}
