{
  "type": "service_account",
  "project_id": "saif46d",
  "private_key_id": "b92a62139851edb58e49be69fe3ffba864f1b27e",
  "private_key": "-----BEGIN PRIVATE KEY-----\nMIIEvQIBADANBgkqhkiG9w0BAQEFAASCBKcwggSjAgEAAoIBAQCWPegly1s914eJ\nUeicIrFjykFtZnqnXJD6JybEAEXoPJEQb7/gNWhJChyAwo/hrPTtCGpa5VX+mtUB\nDe88EJ8sS0pn772Qplzhf6eFrZG4ZyIk8/bYCIuy3KdImYtYbDmlk707Co43Y4Xz\nLdF34rgzRrGED/zM+cXID1SzVF/Ty2mQiJa4PKke/GxYf8c7ycphZdTzdfMhOYAq\nzCaqup259dal3RsUEe/OqE4syTZJlReYZ1m5MxhkFsa1wuNZQDLPBY1Jbr4zGg5Q\nam2yObpMgsXB+ccNVYN6+UN+uF5+6U+AfFLkDBvGNEwX9CvyA9a7BdwzrJLnKPDo\nQS4BETSnAgMBAAECggEALHtkvbfhKkSjRNVi7MNayORLjcPvIZkG9YFc+V/pUrKH\n8plbclrtpt5fBQJVzifClmFM9995n/mgggDpqVt0fQ1HmNFCy05uJneAllQG1lV2\npwEyPtD853Zr8tM/De1w/eRpfM8Jvz1wncidgYS3K7tM+IAxRVDYLXzYg4XCH3bg\neQsaZpDeKIFq86/702NQfz4237kHbhQOZK5uq11r77natQcmrvmP5/p7bgtTSEkg\n1oDKgCzs55d30X4Agskr/tLJYGgX/akC/EewzawGpjUiWJya3CqrOwIAY5gtYQ13\n8SVgNqX1SJ2YRWVPTYu0tj8vjXuF1zJj0yzUcmHT9QKBgQDKVbtGUGWofHB8Y+tn\nzx1g93xCQDzyiT+ZFSGRkamIEzJWV4DDvH3gKEKoGdA1awA9Khw62Y+n4DsgijyA\n1hnP8suYAo7KIRPvmR8HR3c1Kgh1cUVeJar+3ZyZab+g3QA+EBSrtXDE5d1R5X8X\nZqPXflEgTAXl64NPqiKXI93p7QKBgQC+FyAz9U228BBjLDy4ufPZdx912MQbHiXK\njPHGx9wMobhNATavJKXyTO72FEFzf+tXca62LwLwiAWw/TzpAnVK8nXXO5Mx6wzf\nhZsCLmbfsRbSJIHVOE+aXlIEwnIJFvIBvMBf5APdoItRQte0ot9bZqLixv1VOuuC\nSIOQao72YwKBgFITrvFaAbL0L8k12zN0H+3K1vwlBNQ5+rOFj+V2GjhZ2SyPOGuu\nVb2Nd2Sre/t/WUx2fZcd1Bl8a1/K07pLn5LsYcxbFUNHYcfq7FxOkDvfviit9z62\ntwPGMBVHgXWm0MdcTJZO9tzYhgwHtaNvfn0W/5/DVw0qmUzCrl9zLD0NAoGBAItc\nSvisu8gFog4DDZVkhtkE02TDgapb5NrlkA/q0HHWUlbqL9whoyPLsVlpqj5yJuiZ\n6LuaJa6QGpQSZIhzi+hhb3FXNOfg6jQpMGZd/H+8xf1UVHcsbHfA9KKWp6HwV4Zc\nijEC6q6eF+WAesHsspHA4mQd/PZyVtzSKtpCtQL/AoGAcL5AGVZAxlECHtnxkYmL\nsDcrlJcTbzCfOFJESfCyIFg2ye0T4JjyPWio5YjTS49Q3zqnYtQNQ5PiJxAA+L27\nkFhItS54x+Fdh0B3WlB8iw+xMvW03MMFgxX1CE2e1nOGRlYfKVjcPofjfKkcu9sX\nCEr4oK5NdC1sB7Q90xuFrHs=\n-----END PRIVATE KEY-----\n",
  "client_email": "mfc-769bczaky3f5qzl2t1o2ot04jm@saif46d.iam.gserviceaccount.com",
  "client_id": "100461001322578726328",
  "auth_uri": "https://accounts.google.com/o/oauth2/auth",
  "token_uri": "https://oauth2.googleapis.com/token",
  "auth_provider_x509_cert_url": "https://www.googleapis.com/oauth2/v1/certs",
  "client_x509_cert_url": "https://www.googleapis.com/robot/v1/metadata/x509/mfc-769bczaky3f5qzl2t1o2ot04jm%40saif46d.iam.gserviceaccount.com"
}
