{
  "type": "service_account",
  "project_id": "saif46d",
  "private_key_id": "45961a18563a51139cf00d02e4d916e5ae17c216",
  "private_key": "-----BEGIN PRIVATE KEY-----\nMIIEvgIBADANBgkqhkiG9w0BAQEFAASCBKgwggSkAgEAAoIBAQC67sL+kAEpXM4D\nxBvgicrWIbysHwi2jlxsWo+nvfLd7bEcc1bkoff9ktoyCoBErKWjK1S7LND1EntW\nm++KoKtedBuJtlfQiRY/NrohvrOf//HvG415RahJBgEvZxEsyr1QHsnnplbjYq7B\nBWijS5Esmwy1ltwlSFVgJD3hGJV7gY8hB12zo1H7BrifdjE2yhrOEDVSFxQvKMV3\n4LtfImYnWOk1ySDnvToyOfu8RUEKjTY1YuWPyJO+lFqWaD4G+iMoky+6UrPIkUmG\n89VlGJDXGpC2XzEebJnFLoX36Ex/NF6LxYp0S0tKtFMqagHlGCiOgV2hjrRK8UWT\nwfVdUVRLAgMBAAECggEAAO8x5GV18st6nJk1Ep41Fdd0osbXPfZbM9TU0dXwG1V8\n2rhbynvET0q9RhQQ+V+EUJYNl0DXSSfYr5ejjtbeNuB0sbRoHvXpr6tuyDPcAtWb\n3VDANcdQxyMf0MbhEay/In9s5j0/9FEVnHQSC2aZkFtl4+c9e5yID8qxC2l82met\nJqIMxbk7Hixqidl4C7oDK+OEQurYTgYqtl833NQAo+8p6FBcPvHsEriU7oIZMVmx\nKn0g8vj79a4BIvZNMLxpEBW4dB8U//6iyQwN9/vzkrngq8/Ref19VVbQt8wMX2AL\nbqshDKaqMyGQF55LOBtQyeXUCrdKXkjc/gTbD7tGtQKBgQDk4GzbF7aOWbtmZpop\nxB3soAtMLflLvacZ2ar3vED836eR0UfJ7vkYef5UU1VHsCUDXeF+N+RIuIfHodJj\nqaoLwewocJjLqX5DxEqnjNwZeaviHbt4NMgZ4BzsXaIkY3a8Ap3HgU8IdOBhSW4I\nhmkuMS9HI/Wk3XNbxaIk8AXlBwKBgQDRFdroQqbDjfDNdfXuKsJxSQtQ3G+qm8Jw\nnWSALlUoSPU+rDk+v0j4yiWAoCEr48zCIpG+T47NYBHEbRq1VZl4AnWsjC+EZAKh\n+ggeVbLZH6R5oxubXZIm8Cn9/0UIPz5IBCmx/Po2q9ALC7HjmIRgyL67n0XqVo6t\n7rSJPhxpnQKBgQCMrYz7FZY15N2U0VfMeCjUeoK3LkLe1RFSiEHXx7RCOc4riHER\no3skGkfC2P2/9HqrmRayl/QO5q0+fS5t56kHVQisypiABgv/5zTjy2a1md2WPCQw\nfHDJxsDAX8T7jM88PHdyWv6S+hO4eIPTZZpctAqVNXsU/LCdJdrFzWoyHQKBgH34\neexng8vcL9HKGULGNmJEjPHJ7elPcMWivlNQFvRviHqbDt5UJyXlvNSTJYko9Uud\nwktz6WipUesThPzttsoMSVONHm/YRZHLb6q/HUMdgl3avJ5NsOmO1u32J2RBnkeL\nYoefEC1yNKUDBclHMbKSIAAwhNIcFliKsfDiIAItAoGBANZlAlyHz/HraEJXEbiu\nE39k2CKcwYh8kFDYbpgMvezl7PZiqsciJTRHVEEGPOOKtgwfPAxWNe4Grd5v5Jn7\nuukeCQFKel7k3NJ39EI9fp0I1XiQ3b4NlZ2rUP4h24gmu6gYZ9wSKNv1FhIdU7OP\n1G9vyXHPtHiNYvBK96w+OhOW\n-----END PRIVATE KEY-----\n",
  "client_email": "mfc-s9793kkl6lxhzm7wmf5q22b-br@saif46d.iam.gserviceaccount.com",
  "client_id": "106047854380934006668",
  "auth_uri": "https://accounts.google.com/o/oauth2/auth",
  "token_uri": "https://oauth2.googleapis.com/token",
  "auth_provider_x509_cert_url": "https://www.googleapis.com/oauth2/v1/certs",
  "client_x509_cert_url": "https://www.googleapis.com/robot/v1/metadata/x509/mfc-s9793kkl6lxhzm7wmf5q22b-br%40saif46d.iam.gserviceaccount.com"
}
