{
  "type": "service_account",
  "project_id": "saif46d",
  "private_key_id": "a827db33de10a34f312813dcd88d0437ac8cb4d7",
  "private_key": "-----BEGIN PRIVATE KEY-----\nMIIEvgIBADANBgkqhkiG9w0BAQEFAASCBKgwggSkAgEAAoIBAQDVE6V73+LM+/V8\n2NZmbuLoDK47r9n1J8x7umw8ZdsUsyWscTcM5KNGdbBzWbVaUTd3uZApVJh2xa8J\nfyPhNMFkURywDE3D4TlMFxhxraVFTy1gL69SH9dtGhn3UaLvDF3DW9AGlErUh6yU\nFKbtfjGX29GjGGoKlRPHUxHN1tKYyFvUS+0QrYy+0hOOeld5Q9ubkXWqzuENDVSo\nKcr1z5qTjC/tvurPDgY+JnnRMPWg84k9WXlLXSt/dmmg2XaR4BWmtoWF9nAKmSPp\ngxozOBuMr+tjR+2CfX2GfvgkZwUT38McmwuZLwnKxeoTSViuuxX2pw0ZcB4vot4b\npZSY1r35AgMBAAECggEAAJ78IAb4eYDSfvx0qYxKO72xbkg0wXAFtSH5gMG1Ns2J\nEhxooBZi28oe7EM0LkHvJ2UiqDpTlr0mJ3vjYblZ/L64H+dKqxSlm5zZGSi1VZCk\nS7VFUj2UPh4mOjX2PQ99Ykw1gz3F9TEV1rLazD/MhNt1BAlB8tnGAa4U8KboZEIQ\nzV1aHbN3sbacu3Hwrrj4wRrzgUJEBcLul5vcq61+2WqCx6+rz+vNRMadJnNSwpGV\nL5QzjpSho/afl1uiatpn5GHB1Lxf45iJoUiXaKXQJxatzzeVidY4mKp+Zt/6Ln8f\np7KkeDtPSidrGeHTzqswDIKREkQqSEj2Y4qsIOR+cQKBgQD6+pRcUJA1bRHxmp8O\n6z0FMbWku1TG8nXwLA3Z/lOK7BnG2JnOLpAkSmHvqqd96EW8y/h7ZlUT76gE7IpZ\n1qLmYXEtWM0XgGA4lSRkfUMfojt24CHUUREAURdDyXWakwjDu2i1NpIWhBlSUgBC\ngSRHqXECZt2sTp917EYdsDX0jwKBgQDZVvJMZ/xQ63HhgbebQ8mx1VCgVCAf+OAH\nMC00AvRwrQFCUkSM+WyYEYbBhJxbPHQrEg3uH6u6nsIX2gSiI1UqDu2deopm8+9o\n7XqbMCms28hnU8C0shiBL7W3BvQKRDLmY1Kqoz0smDJoe9OGesPMw6840Z+xwt7N\nwQY/jW+49wKBgQDAqIIiqyVIHcXcdRkMVr+ssRACuFrHrW+jQe4QHQ78YWkYH0VR\n5KR5dy/ezl1sZVTDLMA92bwNZbbQsNMzS3QY7Uv3x2cIV1+Fj9cz3IQeUGbdRggx\n91jZqWX2fztrwNrFhaNHF/Dkn9rgOlpAsumqqQM7GMOpdWErIIhiWdXROQKBgC2s\nA8biozcuAwRsifTqzdu9A/BtPUL6vblE+nrPlCaJdJZHS3iEgbmDFVpdT64sigzz\nAlJj/WZ+LjNs8URRQHhSIsTRF3yDDnByVy19dYSJuxdblkdilZuwNvN7VpVBt6CK\nhritDRHt+cnTG6RK8BJ7nLrH8lMcrE14nqOESVIJAoGBAMNheGWd1IKUJ0eSwLPY\nkBcmIvlVGFcg6xoYkWqIn6EewBALu2VXnu919AIelEmEvC9Z8bdoToHgqMbQRYex\nq+blAhlvWHEil1tRYKvoMieVnypFiAt2EJqmy3+h5HGz4R3XEQM/+h9kVzRW+gqa\nbpiVHuKcCMJHXmRUp3CGRRGu\n-----END PRIVATE KEY-----\n",
  "client_email": "mfc-xq7wxuioh5lwmji93mz9b0pzfx@saif46d.iam.gserviceaccount.com",
  "client_id": "102181951326846472502",
  "auth_uri": "https://accounts.google.com/o/oauth2/auth",
  "token_uri": "https://oauth2.googleapis.com/token",
  "auth_provider_x509_cert_url": "https://www.googleapis.com/oauth2/v1/certs",
  "client_x509_cert_url": "https://www.googleapis.com/robot/v1/metadata/x509/mfc-xq7wxuioh5lwmji93mz9b0pzfx%40saif46d.iam.gserviceaccount.com"
}
