{
  "type": "service_account",
  "project_id": "saif46d",
  "private_key_id": "470be01f1036faf5882ef53cf66ef0be9bd84178",
  "private_key": "-----BEGIN PRIVATE KEY-----\nMIIEvgIBADANBgkqhkiG9w0BAQEFAASCBKgwggSkAgEAAoIBAQDGDTVWyYTDYs1T\n3ja9WFeq2g+d+qwMj5TLpBz+a02A8NMucWYBtjCRy79a+YjLZFwHPBK8v++SbfCe\nFjNVxSL3O6aUDCiFTKhE/AdXcyGADld+/4MGsvTng8fJFg5kp6No4t8NmS5LFWHT\nUSA9QCGb5ecUe3XOsD2i8JnDafECDT+HJUNH/qbqhmftQIiNRgnYVnN6Tjml9B6k\nHcbD7N9edu17kliXH+NFJ0o9RGydCNlo/C6rQTPC8ST8KK+xfbp7NNudhd/9l8v2\nzM2fOjlfcAYNruXywsFCmAvIv74g2zVkXG9eIeJ7Ayn5oFYRjJH2yP5FaPzuOByn\n1BlPmI5dAgMBAAECggEAI0OmT/P1XwnoaArM4eWJRJtrxPQlrt3g/2qTHA0UoYUg\nASjBYkQjvU4TXjpIzHhr94DPkEq3uHG5cpie3uKJcY6uQDWzAFswKgpbL0vJdwD2\nvN73oFl8iH2bNPenq+36h3o//66bAtUFlGghTq6s3VKwFOJPzXPtoaXoJxalynir\neHpMGuF00Wy1jsV9FD/nm/BsVWfHUNepzMxcjbCB0uWDDFOg2kUyuNfBAR0D9/nU\nQTEuk16EvixISXESynx+ceBXV6JjalPJnANvI5PxyWU8U58vVMCT+MK+cwl1wg/c\nm4xQ4MPXpy9NPoFxDLJ0wCo1oapW59gTzOhjluNvCQKBgQD0IKLyYq1XDcz3fm1R\nagDdSUoi/PB+2rqKDDDtqoPLipSHKB823eqcHnkRIEK1+r48CPzKHRDDfIBzipJl\nRkumBf3zxzDgveBqgPZrFs1cIsE9/S/l3wF8bK0UsaKFIaPrLXYQqc5i6/jrr3wb\nTj1d7jQR3uvuKRAQO1C26UPCNQKBgQDPru51IilMVTJAjFSlujymFQ+natTgJWgy\nELTv026xe1MDn/4295fbQ7zrX5lbqEHu5tBCNHMje4NeZeF3lRBDlWLBP7NeJd/Y\nw3VnlXiWaem1I/t2CgcG3UMoJgGtshW3LraUYolV/yIaOk8maCr340m63JIHY7Pm\nbXafO7MgiQKBgQDjacuhM57561c2bkVzg+XOPcmcEjgOU79VfcnOe/tODogR56Q8\nPjmguRpag8zhLPUtg8nIlY7aLA6Uk0+QnA04WXiaMMIteXOmgwAJ/jHLVGzjTAnk\nfvspZytMjbUxg4bpO24yU5x4tg0psE1SOm4cJBvJUfpB32qhVD/6RA3kyQKBgDUW\nEf3+7W+Fl4LIXBrAsCAD4ix5MlDZPvkNLDLhaLoVO/MBQonqX/a8Kd5AYYL8T14x\nwaoqngPD3qCSij926uFbnhKnpcG7DKzryWbg3iIUkJisyeoyRfmLNU9d56/uhX59\ngk4Loe9Jd/4cSX8XwWP7xSzulKUu5x1PfbLWH8OBAoGBAN7GAb/PXu6Kqeg2iRS8\nH1VklFXjohrahtQyK+f6mA9gz5Zzd1aDEFSePf1yVWCQ88tN+FPqkGz5HSc59Xkf\ntHqHdW6Dfp/VXh6OiR8zXN9OFR+7bNUWtw3a71p2RhHzqSglzBHQYB2iFjjg7cOR\n73UkdyTargqdYFhi5oCXbWWp\n-----END PRIVATE KEY-----\n",
  "client_email": "mfc-vbeqh6c6xvbw16vyofnnwxjt0i@saif46d.iam.gserviceaccount.com",
  "client_id": "104548102433241214006",
  "auth_uri": "https://accounts.google.com/o/oauth2/auth",
  "token_uri": "https://oauth2.googleapis.com/token",
  "auth_provider_x509_cert_url": "https://www.googleapis.com/oauth2/v1/certs",
  "client_x509_cert_url": "https://www.googleapis.com/robot/v1/metadata/x509/mfc-vbeqh6c6xvbw16vyofnnwxjt0i%40saif46d.iam.gserviceaccount.com"
}
