{
  "type": "service_account",
  "project_id": "saif46d",
  "private_key_id": "af6f5776d28864050693639255e0c91026812bd7",
  "private_key": "-----BEGIN PRIVATE KEY-----\nMIIEvQIBADANBgkqhkiG9w0BAQEFAASCBKcwggSjAgEAAoIBAQC5KjjoIeh4FHP1\n6qp34fZDwsYovnH3sko7RzNI6vXxtXQFcvLktwqmou/uBCIsgzX9o0kjwZkgHEO2\nKkYg/hppZsGrjRNVrOjj8ia5pPsfgeLDpeIEylw8bJubY/8oTzcUkXmj9p+LUUzr\nwiKVYYGK/F24e99YaC9GzHuBZTUs00Z2I7aFPKROGLJ+ukb5R7a3usy8m+qAIsbt\nhY4PbO3aYG6UyC2qS9ppfP2do7PwZ0LyyjAuATJKTooRjG6FdwrxV0xYHstO282X\nTChPeYiGh75xMx40mkctIAiJbfsvrQHcRmalBfc9PfAZ/CnlPqH+wLWe2/tr5Tj6\nF8Qb/eXNAgMBAAECggEADGNiHKBteIs1xEAyWNmfVk0+YL93ydtTKBV4EurVZZnU\nQgESIHHhSTYhg0p3gYQ4eoMQLk+SOm8UVf23ZMGwwViEoJZMXYZiASN+/8X6nyhb\neZIsRaccS1ag2ovy0vQ/JSXOfkUjy3hhrcGhUAk5V4km5A7gPylJRcgB2K24GbWI\n/ZNKFE2olHx+zd8RtChEJk/L1/qVgLZ/PLb8Ly641o9gh8CsB/6vbh9auwtN+G5X\nmVyZuUWX77/ZgJF2V04i5gZpHLa2FZQbL4nlmBm0o1l79z25Ct1GkrJqY3ByDKdN\n3fnZ3MLef20axd3vYjKK+OFqzZDhY4vcXc9f6t7g6QKBgQDwFEWvH24SCmRUoAuq\n/jm2DHIXFu2y1QmXB2fFTjPD0hjxgImssWPsmKLFL6mN952w2WefB7cdn02EQKYB\nGUvYN5Hn0vIrNdtrh1tQptUQDOEvaCQNSVJnn1wYt4AtOAfUfaWR5xvtBNhx8XTb\n2VhMZLzjYqqLAdYyJ8OQr5Zm0wKBgQDFcbFdZ00jUvBPuB3CwTdSTACdN2Kei5v5\nGgcAGCAimdc1WtvsUscIglY4SiBjzD2ZlvrFviGHm8whY24F11YUeQD1BDsi3SBB\ndxBX33zXntq3oRLJQ/gI+FG18wEQCMU4RXYQQlQIc5Vba7VHRBwO8z5ra20DoxYn\nnUqQUc/c3wKBgEH0/9QF6YKRUlEhizMWFxrZvnpzdShdeP4CLdM6EeSpkuq+apSE\nQ7SblpRf7NAxCCSvBdXeE8PSoURFUpYYsgqb8bzj6l5OtJKNJFw7CWwYbcFNdiIk\nU7xeProXp+JEc3pAbr1v5e8vFpvvPzCrPKP4RSCfWcVI4uTyobrdUo+7AoGACDHP\nyrCe4vhuQODDW3HpeeDtpZjG3w2sS4po//gAXW9FH1HGDujgmdnO+kcZUQsJA3bg\nsZRSj+5HaptV1ag6Sl87SvACBFBpJk5qvzrnU4ukSDrHLNNFWBn2SjbrtF6o0M0R\nOVuHYVJqwICX5X1OLNCrpomu3JfIM5yzm4nJtsECgYEA23gAr67tJ8J9Q3vvSoVP\nE05QZGLIKI4FqrpTceVvJnEt3rrOLRl0lxOpHFdMNcb/VpCgcwwU0bO7j37aO81h\n84TueQFAsrjoSmAcX2KsPBahnVPqsrTz10gp+r9OeykDXEgZnvA2mdIFtGbtE9Bw\nAY6TlddN1EY+P+B23hc00CY=\n-----END PRIVATE KEY-----\n",
  "client_email": "mfc-yzcffenh59se2kidk2zmiciw-f@saif46d.iam.gserviceaccount.com",
  "client_id": "100462996368096965781",
  "auth_uri": "https://accounts.google.com/o/oauth2/auth",
  "token_uri": "https://oauth2.googleapis.com/token",
  "auth_provider_x509_cert_url": "https://www.googleapis.com/oauth2/v1/certs",
  "client_x509_cert_url": "https://www.googleapis.com/robot/v1/metadata/x509/mfc-yzcffenh59se2kidk2zmiciw-f%40saif46d.iam.gserviceaccount.com"
}
