{
  "type": "service_account",
  "project_id": "saif46d",
  "private_key_id": "dfe4c3821e31ec677b454af58e02f10d9ec81c58",
  "private_key": "-----BEGIN PRIVATE KEY-----\nMIIEvQIBADANBgkqhkiG9w0BAQEFAASCBKcwggSjAgEAAoIBAQCUR/i06V9FJsRU\n+a+9qYnOSsGzYf1DJC/hp2CDTnd9mLan+t8XGXx3C9lwiJD2batZIhMHFid5WMzr\nvx3gaI9dFgPvy6PoTkqDPRTWs+CfmIz3t5+OH7Rs1li89lXVSpu73yDVE14c4wRW\n2m7tUrcsMgSQ0MV8xJjqTMOpoWrC7UrvQgg2oi07UaO7pVeZNA2OWVJL2klWensW\n9CMWhiZJVtO31tDTyl+2APvKiw+B1gQoEuBYLFwycGzRKW0dMuHnL78Pff/L4c0g\n9aKTHJzULMPpYRH+1QRnX3PlKTgfb/wgXX8j9q00ERpsePEPZ8dv/rQLxI/KvIrd\n5fy4b6ZVAgMBAAECggEAG3bLI2L4MNwx0BVhDg15RzrEbr+vA4EP10lDkH53lk0z\nQ6CtMl+XlIsezn+U7fe5HWy4vn7Fd+3RIrcGxxpGt3SM7Ry4Mp5RocYt9mhhqd28\n+mLJzC6mIeR/khxEIJnNh3oX4C9SpqILmzShCBbic26eNt5cPbRCKF9ofCI4HntB\nzP7yV5XOooohVSZhQBIH+ZUaaNi/TfJ1IleGYtRkgN29s3OVmBwlz9ej3hjbhgDc\ntQJIVFeHbVXEWVttZ8GfrvYVCeic7lJHhAODhY/TmyGyUflXXyPL8yT67iLB3q5D\nfzaQfnI816hdW/96G50sU+q6A2B7+XnSaE4VpyIVrwKBgQDHYboNUcHzH6l3CJgq\nTjWvRFvBb2iychiMtT+qClicpUl5wR5lZXWTYQMUtsuVJoryINfvRLZ0BK2K7BUr\nJl7ChKjsoh24YXbxapsp3UZvRDLAFZkFmi6NpEtBWwlNXLefQfrekCfe34shaWtV\n/5hHdmBO/V8C3UF/A7HTV4PITwKBgQC+Y24zd5MAaMRCLyPcejf0ETb7vD8jnv29\n5nELJqvmxLnQFZcLPFqD42m91K8xqZ+lqRBgBwfy7/7ONx+mt6czzFGR5yAAEeNW\nfd0J2XtXFCwi24Sd3H17+6dyF3G8Oh4xE3I6u+JkdgJ/bnJMHBbpXruzXxjpsUik\n0065q9aaGwKBgFvl6HqBJ5MnEdYiqPg+6jGpoV0sO6acPkKEvB5k/GjfKlmrMJZt\nyF6wxVnD01wg0sQ9bSoEktAw48h3fl5QJjckLDQ9mNNGYStvBquqKO/aEEZG7iwN\n3807X9B05Hm69Yu7PqVc7nOkt50j2OxfjdHKdyORVzybvLeNfWY7HSuzAoGBAJNU\naGQFhUlMyYsZ5ZtpLMF/TNgzTXzoPR1mJVZmv6Hd3JitDGyScM0c/6f53PUGeVd9\n5AEbj8gsdjboK2MdPZN06i6I95d2QEGfNpy3op25K4px60cp6CU4kdRVVhs9sj1x\n+fR/jmsFc1tfga1qE0TWnVPqJGI7YabDKmm+E1y/AoGAJTrguNG9SpjobVfrcxMn\n7VRb/h2MD7YX62BPgvZ/Pd27Qr8ri9b874yBab42G3Ws3+04D6CGdW0jbrAOYLxd\nOU+JvzQ8Y4IIw/q1HjcQQ2MgZV7H7Sw5Cp4MkLMWhZ2NmKvGSMzfNWh+Uf3wJSW5\nY23Imh9twKgZKaLwiCCsQRA=\n-----END PRIVATE KEY-----\n",
  "client_email": "mfc-9b61v2u8367wr6i6p4nl1t49s6@saif46d.iam.gserviceaccount.com",
  "client_id": "116399597695051674826",
  "auth_uri": "https://accounts.google.com/o/oauth2/auth",
  "token_uri": "https://oauth2.googleapis.com/token",
  "auth_provider_x509_cert_url": "https://www.googleapis.com/oauth2/v1/certs",
  "client_x509_cert_url": "https://www.googleapis.com/robot/v1/metadata/x509/mfc-9b61v2u8367wr6i6p4nl1t49s6%40saif46d.iam.gserviceaccount.com"
}
