{
  "type": "service_account",
  "project_id": "saif46d",
  "private_key_id": "4244587074ed744d7145114c777a3b794d29bcdb",
  "private_key": "-----BEGIN PRIVATE KEY-----\nMIIEvQIBADANBgkqhkiG9w0BAQEFAASCBKcwggSjAgEAAoIBAQDALNZMnMJOig4Y\nlWaxYTRcqpUyMQaWAwqx1ZATQAH4IFYdma6ob0veOCPHzCXzXMfXifILJ0Zm+7oj\naGCJnMem2PhhAEKCVNRqNEelhW8MKZbXfEYsx++ctcbZEQeb0pBc89mDVXp3p6DF\n5SwyQAY2JSqr11ZcqPzS+uGcfDDsqcTNfnfyRMAzYhO4Q9qxEAxnw7xG+plIJZ+E\nOYOrAvO0+pN2Eto2Q0/uPS6DUPGQQ6e/FWfd14J3PRsVTAsrkLQb1BGfcHF91pR5\nop8l4veM19X2nQH0EGwT7yphYoAhLCaz4sgXypNxi9MYeoCCq/YWzl87La5XJ1Pc\nOfHiCziVAgMBAAECggEASYL9SNowM9X4lWvVGCZMXuQ75TK+x7SLK0K79bkm57EK\n8BDBMJo+ZdeIzF1p6QGFSoxwo9aWxj8l0XSUdR+dedQGkyiDyJJFnQi5nXYA6CCi\nnHRj7a5fmM0qLw+mHvO5mG0JOAWDLvFW/UxwjxpRpfWqsIhTd2eHKvegRPl2x5hx\nJy7Xcuc9162TrVq/W7S0hno99QvLvaIgSs5cmI+tS7l2vIFMYe9o3dramCt0FwPW\nUR+qH5DzKv+oHP9GsFzHT5KEdwU66WfTtuXA1b/mZLdqBTfr89CvLqtQYi/I70yE\nti2LPAJqvUehzF3K1kp1FI2gruqj9Yg1xs1/xpRaEwKBgQDxuyW2XZuLcP8MjQAh\n0rX0xQw/p0UXy7qeCbxb4Rnm/LscfYfIa0GkQWBngpVnj80pRu2s1kmQq9b2pnvZ\nmBN53O4oGhV3d2Uvf9sZSq/DBfqMNU1XyoOybDZQWLE+0Wrmf4k/x8UTL4Pjred4\ni+kFG7jKBmGJ1HCF3FKtaTVcywKBgQDLhNbfkyceLAwVLMgfrKgOPTNMVIic1Vt9\ncBtyVZJf/xVNJ5Z4z3nqE2EvzeyZHYVQEsOozKc0pTbm+lIAc6ZSh8pTPHpsjAiu\n76UKfq4v8MvpHwydDvJyvfvB9HjAxvH+7guX3pL0bvVS4e0+VwNc01VfUwAE1RmB\nyP4kA3t0HwKBgQDcFz9Q+Y2jujAeJ0sVgJo20CpE0nFwJwg02Dxtk1hYHYfnesvk\nSPOtL/EsjZKmhiGQEYpZMYotdKf2TsK47WPeMq+MR6N/8G9qfgjo0D2TXaAvhGB1\nLGgYTbpuETLgNSAV2c0HC0Z+H2cAJ9h2wzxYcFMhbgnkyk3hMyb7yKzTXQKBgBU5\ntns8yqCf8Wan8/sxs5lAksAMNO8+ZTtQ3NvwxsJSRTN1xIC3Crz55nHo5RsW9Bdk\nzZkmNu4LqQ0v4CuB5D/JP7Wsogv+Es3D2o+cpKgFUg7vGQ6sR2bmH4Kb75gTZ5ux\n0e213de2VsmdHHQa+RPOSqIVcvQOEYnyn2a8Ijz7AoGABXmShTnDlppJ6TjsF/Ee\n8PckzJZnX6aCBON2wxFwFQqLXMc0b1CZ6Zhc53pcYcSI+vh19vMyIF0tj2rutgCV\n/Plduv42eOwfmgrcRIKywabLhvVwJaC+FhsQk/MFsDomao8rnseTtTXpHL03wjx9\n2g4/CRAWUVX2PQ0Z29fb0fk=\n-----END PRIVATE KEY-----\n",
  "client_email": "mfc-vck2-zft1e52lj8jussdkus-8v@saif46d.iam.gserviceaccount.com",
  "client_id": "101499796019721164766",
  "auth_uri": "https://accounts.google.com/o/oauth2/auth",
  "token_uri": "https://oauth2.googleapis.com/token",
  "auth_provider_x509_cert_url": "https://www.googleapis.com/oauth2/v1/certs",
  "client_x509_cert_url": "https://www.googleapis.com/robot/v1/metadata/x509/mfc-vck2-zft1e52lj8jussdkus-8v%40saif46d.iam.gserviceaccount.com"
}
